ID,IMDB,RT,RV,RE,MC,TG,AC,T
1,7.9,7.6,3,3,7.5,4,3.5,1
2,8,6.9,3.5,2,6.5,4,0,1
3,6.2,4.7,2,1.5,4,2,0,0
4,6.6,4.9,2.5,2.5,4.4,3,1.5,0
5,7.9,7.5,3,3.5,6.5,4,3.5,0
6,7.4,6.8,3,3,6.6,5,4,0
7,7.5,7.3,3,2.5,7.2,4,0,0.6
8,8,8.4,4,3,8.1,4,4,0.3
9,8,8,3,3,7.8,3,0,0.7
10,7.5,7.8,3,4,7.7,4,4,0.6
11,7.6,8.5,3.5,2.5,8.8,4,0,0.9
12,7.4,7.5,3,3,7,4,0,0.8
13,7.5,9,3.5,4,9.9,5,4,1
14,7,5,3,1.5,4.1,3,0,0
